id,image_name,brand_name,number_objects,created_date,location,pincode
126,test_1tested_7.jpg,sprite,1,2019-02-04 08:20:57,Kalwa Bhusar Ali,400605
127,test_1tested_7.jpg,sprite,1,2019-02-04 08:24:45,Kalwa Bhusar Ali,400605
128,test_1tested_8.jpg,lays,1,2019-02-04 08:25:27,Kalwa Bhusar Ali,400605
129,test_0tested_2.jpg,lays,3,2019-02-04 08:29:05,Kalwa Bhusar Ali,400605
130,test_0tested_3.jpg,sprite,1,2019-02-04 08:31:14,Kalwa Bhusar Ali,400605
131,test_0tested_0.jpg,lays,1,2019-02-04 09:39:23,Kalwa Bhusar Ali,400605
132,test_0tested_1.jpg,lays,1,2019-02-04 09:41:51,Kalwa Bhusar Ali,400605
133,test_0tested_2.jpg,kurkure,1,2019-02-04 09:43:28,Kalwa Bhusar Ali,400605
134,test_0tested_3.jpg,vimal,1,2019-02-04 09:50:27,Kalwa Bhusar Ali,400605
135,test_1tested_3.jpg,vimal,1,2019-02-04 09:51:16,Kalwa Bhusar Ali,400605
136,test_1tested_3.jpg,lays,1,2019-02-04 09:51:16,Kalwa Bhusar Ali,400605
137,test_0tested_5.jpg,lays,4,2019-02-04 09:53:04,Kalwa Bhusar Ali,400605
138,test_0tested_6.jpg,lays,3,2019-02-04 09:57:29,Kalwa Bhusar Ali,400605
139,test_0tested_7.jpg,lays,2,2019-02-04 09:59:30,Kalwa Bhusar Ali,400605
140,test_0tested_8.jpg,lays,1,2019-02-04 10:01:46,Kalwa Bhusar Ali,400605
141,test_0tested_9.jpg,kurkure,1,2019-02-04 13:35:12,Kalwa Bhusar Ali,400605
142,test_0tested_10.jpg,sprite,1,2019-02-04 18:45:49,Kalwa Bhusar Ali,400605
143,test_0tested_11.jpg,sprite,1,2019-02-05 11:41:56,Kalwa Bhusar Ali,400605
144,test_0tested_12.jpg,sprite,1,2019-02-05 11:44:47,Kalwa Bhusar Ali,400605
145,test_1tested_12.jpg,sprite,1,2019-02-05 11:45:30,Kalwa Bhusar Ali,400605
146,test_2tested_12.jpg,sprite,1,2019-02-05 11:46:13,Kalwa Bhusar Ali,400605
147,test_0tested_15.jpg,sprite,1,2019-02-05 12:07:08,Kalwa Bhusar Ali,400605
148,test_0tested_16.jpg,sprite,1,2019-02-05 12:08:41,Kalwa Bhusar Ali,400605
149,test_0tested_17.jpg,sprite,1,2019-02-05 12:11:23,Kalwa Bhusar Ali,400605
150,test_0tested_18.jpg,sprite,1,2019-02-05 12:14:24,Kalwa Bhusar Ali,400605
151,test_0tested_19.jpg,sprite,1,2019-02-05 12:21:30,Kalwa Bhusar Ali,400605
152,test_0tested_19.jpg,sprite,1,2019-02-05 12:24:10,Kalwa Bhusar Ali,400605
153,test_0tested_19.jpg,sprite,1,2019-02-05 12:30:43,Kalwa Bhusar Ali,400605
154,test_0tested_19.jpg,sprite,1,2019-02-05 12:31:53,Kalwa Bhusar Ali,400605
155,test_1tested_19.jpg,sprite,1,2019-02-05 12:34:00,Kalwa Bhusar Ali,400605
156,test_0tested_18.jpg,sprite,1,2019-02-05 12:35:37,Kalwa Bhusar Ali,400605
157,test_0tested_18.jpg,sprite,1,2019-02-05 12:39:14,Kalwa Bhusar Ali,400605
158,test_1tested_19.jpg,sprite,1,2019-02-05 12:42:46,Kalwa Bhusar Ali,400605
159,test_0tested_16.jpg,sprite,1,2019-02-05 12:44:32,Kalwa Bhusar Ali,400605
160,test_0tested_3.jpg,vimal,1,2019-02-05 12:46:18,Kalwa Bhusar Ali,400605
161,test_0tested_16.jpg,sprite,1,2019-02-05 12:48:04,Kalwa Bhusar Ali,400605
162,test_0tested_21.jpg,sprite,1,2019-02-06 09:34:11,Kalwa Bhusar Ali,400605
163,test_1tested_21.jpg,sprite,1,2019-02-06 09:35:00,Kalwa Bhusar Ali,400605
165,test_0tested_24.jpg,lays,3,2019-02-06 10:32:36,YAC Nagar Hanuman Nagar Andheri East,400096
166,test_0tested_25.jpg,sprite,1,2019-02-06 10:38:42,YAC Nagar Hanuman Nagar Andheri East,400096
167,test_0tested_26.jpg,lays,4,2019-02-06 11:32:17,YAC Nagar Hanuman Nagar Andheri East,400096
168,test_1tested_26.jpg,kurkure,1,2019-02-06 11:33:04,YAC Nagar Hanuman Nagar Andheri East,400096
169,test_0tested_28.jpg,lays,1,2019-02-06 11:48:37,Chandivali,400079
170,test_0tested_29.jpg,sprite,1,2019-02-06 14:13:20,Takoli Mohalla Shivaji Hospital Kalwa,400605
171,test_0tested_30.jpg,lays,1,2019-02-07 05:18:06,Sector 5 Nerul Navi Mumbai,400706
172,test_0tested_31.jpg,lays,1,2019-02-07 05:21:26,Sector 5 Nerul Navi Mumbai,400706
173,test_0tested_32.jpg,kurkure,1,2019-02-07 05:25:37,Sector 5 Nerul Navi Mumbai,400706
174,test_0tested_33.jpg,lays,1,2019-02-07 09:49:29,Sector 5 Nerul Navi Mumbai,400706
175,test_0tested_34.jpg,sprite,1,2019-02-07 12:51:06,Sector 5 Nerul Navi Mumbai,400706
176,test_0tested_35.jpg,lays,1,2019-02-08 15:02:38,Kalwa Bhusar Ali,400605
177,test_0tested_36.jpg,sprite,1,2019-02-09 11:53:39,Kalwa Bhusar Ali,400605
178,test_1tested_36.jpg,sprite,1,2019-02-09 11:54:29,Kalwa Bhusar Ali,400605
179,test_2tested_36.jpg,sprite,1,2019-02-09 11:55:20,Kalwa Bhusar Ali,400605
180,test_3tested_36.jpg,sprite,1,2019-02-09 11:56:09,Kalwa Bhusar Ali,400605
181,test_4tested_36.jpg,sprite,1,2019-02-09 11:56:56,Kalwa Bhusar Ali,400605
182,test_5tested_36.jpg,sprite,2,2019-02-09 11:57:43,Kalwa Bhusar Ali,400605
183,test_0tested_42.jpg,lays,1,2019-02-14 07:13:10,Sector 5 Nerul Navi Mumbai,400706
184,test_0tested_43.jpg,Thums Up,1,2019-02-14 08:05:04,Sector 5 Nerul Navi Mumbai,400706
185,test_1tested_43.jpg,Thums Up,1,2019-02-14 08:05:51,Sector 5 Nerul Navi Mumbai,400706
186,test_0tested_45.jpg,Thums Up,1,2019-02-14 08:12:28,Sector 5 Nerul Navi Mumbai,400706
187,test_0tested_46.jpg,Thums Up,1,2019-02-14 08:18:44,Sector 5 Nerul Navi Mumbai,400706
188,test_0tested_47.jpg,Thums Up,1,2019-02-14 08:23:59,Sector 5 Nerul Navi Mumbai,400706
189,test_0tested_48.jpg,Thums Up,1,2019-02-14 08:32:31,Sector 5 Nerul Navi Mumbai,400706
190,test_0tested_49.jpg,kurkure,1,2019-02-14 09:53:05,Sector 5 Nerul Navi Mumbai,400706
191,test_0tested_49.jpg,Thums Up,1,2019-02-14 09:53:05,Sector 5 Nerul Navi Mumbai,400706
192,test_1tested_49.jpg,Thums Up,1,2019-02-14 09:53:55,Sector 5 Nerul Navi Mumbai,400706
193,test_1tested_49.jpg,kurkure,2,2019-02-14 09:53:55,Sector 5 Nerul Navi Mumbai,400706
194,test_0tested_51.jpg,kurkure,2,2019-02-14 10:00:41,Sector 5 Nerul Navi Mumbai,400706
195,test_0tested_51.jpg,Thums Up,1,2019-02-14 10:00:42,Sector 5 Nerul Navi Mumbai,400706
196,test_0tested_52.jpg,lays,1,2019-02-14 10:02:49,Sector 5 Nerul Navi Mumbai,400706
197,test_0tested_52.jpg,sprite,1,2019-02-14 10:02:49,Sector 5 Nerul Navi Mumbai,400706
198,test_0tested_52.jpg,Thums Up,1,2019-02-14 10:02:49,Sector 5 Nerul Navi Mumbai,400706
199,test_0tested_53.jpg,sprite,1,2019-02-14 10:05:20,Sector 5 Nerul Navi Mumbai,400706
200,test_0tested_54.jpg,kurkure,2,2019-02-14 10:24:29,Sector 5 Nerul Navi Mumbai,400706
201,test_0tested_54.jpg,Thums Up,1,2019-02-14 10:24:30,Sector 5 Nerul Navi Mumbai,400706
202,test_0tested_54.jpg,sprite,1,2019-02-14 10:24:30,Sector 5 Nerul Navi Mumbai,400706
